BIOB11 – Regression modelling
…
Linear Regression

Confidence intervals for a slope

boot_dist <-
  mating_data |>
  specify(reproductive_success ~ mating_success) |>
  generate(reps = 1000, type = "bootstrap") |>
  calculate(stat = "slope")

boot_dist

Response: reproductive_success (numeric)
Explanatory: mating_success (numeric)
# A tibble: 1,000 × 2
   replicate  stat
       <int> <dbl>
 1         1  4.32
 2         2  4.73
 3         3  3.80
 4         4  2.84
 5         5  3.96
 6         6  3.98
 7         7  3.38
 8         8  3.60
 9         9  4.08
10        10  3.98
# ℹ 990 more rows
…
Hypothesis test for a slope

null_dist <-
  mating_data |>
  specify(reproductive_success ~ mating_success) |>
  hypothesize(null = "independence") |>
  generate(reps = 1000, type = "permute") |>
  calculate(stat = "slope")

null_dist

Response: reproductive_success (numeric)
Explanatory: mating_success (numeric...
# A tibble: 1,000 × 2
   replicate    stat
       <int>   <dbl>
 1         1  0.0382
 2         2 -0.603 
 3         3 -0.951 
 4         4 -0.570 
 5         5 -1.20  
 6         6 -0.0117
 7         7 -0.548 
 8         8 -0.707 
 9         9 -0.423 
10        10 -0.0407
# ℹ 990 more rows
…
