Correlation, Causation, and Linear Regression – BIOB11
…
Regression

Confidence intervals

boot_dist <-
  mating_data |>
  specify(reproductive_success ~ mating_success) |>
  generate(reps = 1000, type = "bootstrap") |>
  fit()

boot_dist

# A tibble: 2,000 × 3
# Groups:   replicate [1,000]
   replicate term           estimate
       <int> <chr>             <dbl>
 1         1 intercept        -3.75 
 2         1 mating_success    4.32 
 3         2 intercept        -4.96 
 4         2 mating_success    4.73 
 5         3 intercept        -0.267
 6         3 mating_success    3.80 
 7         4 intercept         6.72 
 8         4 mating_success    2.84 
 9         5 intercept        -1.08 
10         5 mating_success    3.96 
# ℹ 1,990 more rows
…
Regression

Hypothesis test

null_dist <-
  mating_data |>
  specify(reproductive_success ~ mating_success) |>
  hypothesize(null = "independence") |>
  generate(reps = 1000, type = "permute") |>
  fit()

null_dist

# A tibble: 2,000 × 3
# Groups:   replicate [1,000]
   replicate term           estimate
       <int> <chr>             <dbl>
 1         1 intercept       20.3   
 2         1 mating_success   0.0382
 3         2 intercept       23.9   
 4         2 mating_success  -0.603 
 5         3 intercept       25.8   
 6         3 mating_success  -0.951 
 7         4 intercept       23.7   
 8         4 mating_success  -0.570 
 9         5 intercept       27.2   
10         5 mating_success  -1.20  
# ℹ 1,990 more rows
…
